<?xml version="1.0" encoding="utf-8"?>
<!-- Generator: Adobe Illustrator 23.0.2, SVG Export Plug-In . SVG Version: 6.00 Build 0)  -->
<svg version="1.1" id="Layer_1" xmlns="http://www.w3.org/2000/svg" xmlns:xlink="http://www.w3.org/1999/xlink" x="0px" y="0px"
	 viewBox="0 0 24 24" style="enable-background:new 0 0 24 24;" xml:space="preserve">
<g>
	<path d="M0,19c0,1.4,1.1,2.5,2.5,2.5h19c1.4,0,2.5-1.1,2.5-2.5v-0.5H0V19z"/>
	<path d="M21.5,2.5h-19C1.1,2.5,0,3.6,0,5v11.3h1.6h20.9H24V5C24,3.6,22.9,2.5,21.5,2.5z M22,8.3c0,0.5-0.4,0.9-0.9,0.9h-5.6
		c-0.5,0-0.9-0.4-0.9-0.9V7.5V5.4c0-0.5,0.4-0.9,0.9-0.9h5.6c0.5,0,0.9,0.4,0.9,0.9v2.1V8.3z"/>
</g>
</svg>
